---
http_interactions:
- request:
    method: get
    uri: https://api.themoviedb.org/3/discover/tv?api_key=fb6a1d3f38c3d97f67df6d141f936f29&sort_by=popularity.desc
    body:
      encoding: US-ASCII
      string: ''
    headers:
      Accept-Encoding:
      - gzip;q=1.0,deflate;q=0.6,identity;q=0.3
      Accept:
      - "*/*"
      User-Agent:
      - Ruby
  response:
    status:
      code: 200
      message: OK
    headers:
      Access-Control-Allow-Origin:
      - "*"
      Access-Control-Expose-Headers:
      - ETag, X-RateLimit-Limit, X-RateLimit-Remaining, X-RateLimit-Reset, Retry-After
      Content-Type:
      - application/json;charset=utf-8
      Date:
      - Sat, 02 Jun 2018 17:28:34 GMT
      Server:
      - openresty
      Vary:
      - Accept-Encoding
      X-Ratelimit-Limit:
      - '40'
      X-Ratelimit-Remaining:
      - '39'
      X-Ratelimit-Reset:
      - '1527960524'
      Content-Length:
      - '5989'
      Connection:
      - keep-alive
    body:
      encoding: UTF-8
      string: '{"page":1,"total_results":73781,"total_pages":3690,"results":[{"original_name":"The
        Big Bang Theory","id":1418,"name":"The Big Bang Theory","popularity":328.989079,"vote_count":2979,"vote_average":6.8,"first_air_date":"2007-09-24","poster_path":"\/ooBGRQBdbGzBxAVfExiO8r7kloA.jpg","genre_ids":[35],"original_language":"en","backdrop_path":"\/nGsNruW3W27V6r4gkyc3iiEGsKR.jpg","overview":"The
        Big Bang Theory is centered on five characters living in Pasadena, California:
        roommates Leonard Hofstadter and Sheldon Cooper; Penny, a waitress and aspiring
        actress who lives across the hall; and Leonard and Sheldon''s equally geeky
        and socially awkward friends and co-workers, mechanical engineer Howard Wolowitz
        and astrophysicist Raj Koothrappali. The geekiness and intellect of the four
        guys is contrasted for comic effect with Penny''s social skills and common
        sense.","origin_country":["US"]},{"original_name":"Westworld","genre_ids":[878,37],"name":"Westworld","popularity":175.027146,"origin_country":["US"],"vote_count":1358,"first_air_date":"2016-10-02","backdrop_path":"\/yp94aOXzuqcQHva90B3jxLfnOO9.jpg","original_language":"en","id":63247,"vote_average":8.2,"overview":"A
        dark odyssey about the dawn of artificial consciousness and the evolution
        of sin. Set at the intersection of the near future and the reimagined past,
        it explores a world in which every human appetite, no matter how noble or
        depraved, can be indulged.","poster_path":"\/6aj09UTMQNyfSfk0ZX8rYOEsXL2.jpg"},{"original_name":"The
        Walking Dead","genre_ids":[18,10759,10765],"name":"The Walking Dead","popularity":114.027475,"origin_country":["US"],"vote_count":3390,"first_air_date":"2010-10-31","backdrop_path":"\/xVzvD5BPAU4HpleFSo8QOdHkndo.jpg","original_language":"en","id":1402,"vote_average":7.3,"overview":"Sheriff''s
        deputy Rick Grimes awakens from a coma to find a post-apocalyptic world dominated
        by flesh-eating zombies. He sets out to find his family and encounters many
        other survivors along the way.","poster_path":"\/yn7psGTZsHumHOkLUmYpyrIcA2G.jpg"},{"original_name":"The
        Expanse","genre_ids":[18,9648,10765],"name":"The Expanse","popularity":113.116222,"origin_country":["US"],"vote_count":542,"first_air_date":"2015-12-14","backdrop_path":"\/beIjmWr3OBOtcWK4tKMObOIDJ1C.jpg","original_language":"en","id":63639,"vote_average":7.6,"overview":"A
        thriller set two hundred years in the future following the case of a missing
        young woman who brings a hardened detective and a rogue ship''s captain together
        in a race across the solar system to expose the greatest conspiracy in human
        history.","poster_path":"\/prJFWxJ0x8tBPTliMjj51wgYnSK.jpg"},{"original_name":"Supergirl","genre_ids":[28,12,18,878],"name":"Supergirl","popularity":103.720688,"origin_country":["US"],"vote_count":657,"first_air_date":"2015-10-26","backdrop_path":"\/2qou2R47XZ1N6SlqGZcoCHDyEhN.jpg","original_language":"en","id":62688,"vote_average":5.7,"overview":"Twenty-four-year-old
        Kara Zor-El, who was taken in by the Danvers family when she was 13 after
        being sent away from Krypton, must learn to embrace her powers after previously
        hiding them. The Danvers teach her to be careful with her powers, until she
        has to reveal them during an unexpected disaster, setting her on her journey
        of heroism.","poster_path":"\/ufoGrTRbItHvqk42yNHcyoE0afM.jpg"},{"original_name":"Law
        & Order: Special Victims Unit","id":2734,"name":"Law & Order: Special Victims
        Unit","popularity":102.656185,"vote_count":453,"vote_average":6.2,"first_air_date":"1999-09-20","poster_path":"\/yzMQBlirydvKp4Zgr5FbXlsrRmw.jpg","genre_ids":[80,18],"original_language":"en","backdrop_path":"\/kOvt2BOOwSAQCT8yo3pM3X2GXjh.jpg","overview":"In
        the criminal justice system, sexually-based offenses are considered especially
        heinous. In New York City, the dedicated detectives who investigate these
        vicious felonies are members of an elite squad known as the Special Victims
        Unit. These are their stories.","origin_country":["US"]},{"original_name":"The
        Simpsons","genre_ids":[16,35],"name":"The Simpsons","popularity":102.386234,"origin_country":["US"],"vote_count":1527,"first_air_date":"1989-12-17","backdrop_path":"\/f5uNbUC76oowt5mt5J9QlqrIYQ6.jpg","original_language":"en","id":456,"vote_average":7.1,"overview":"Set
        in Springfield, the average American town, the show focuses on the antics
        and everyday adventures of the Simpson family; Homer, Marge, Bart, Lisa and
        Maggie, as well as a virtual cast of thousands. Since the beginning, the series
        has been a pop culture icon, attracting hundreds of celebrities to guest star.
        The show has also made name for itself in its fearless satirical take on politics,
        media and American life in general.","poster_path":"\/yTZQkSsxUFJZJe67IenRM0AEklc.jpg"},{"original_name":"The
        Flash","genre_ids":[18,10765],"name":"The Flash","popularity":95.034283,"origin_country":["US"],"vote_count":2102,"first_air_date":"2014-10-07","backdrop_path":"\/mmxxEpTqVdwBlu5Pii7tbedBkPC.jpg","original_language":"en","id":60735,"vote_average":6.7,"overview":"After
        a particle accelerator causes a freak storm, CSI Investigator Barry Allen
        is struck by lightning and falls into a coma. Months later he awakens with
        the power of super speed, granting him the ability to move through Central
        City like an unseen guardian angel. Though initially excited by his newfound
        powers, Barry is shocked to discover he is not the only \"meta-human\" who
        was created in the wake of the accelerator explosion -- and not everyone is
        using their new powers for good. Barry partners with S.T.A.R. Labs and dedicates
        his life to protect the innocent. For now, only a few close friends and associates
        know that Barry is literally the fastest man alive, but it won''t be long
        before the world learns what Barry Allen has become...The Flash.","poster_path":"\/lUFK7ElGCk9kVEryDJHICeNdmd1.jpg"},{"original_name":"Segundo
        Sol","genre_ids":[18,10766],"name":"Segundo Sol","popularity":91.010703,"origin_country":["BR"],"vote_count":0,"first_air_date":"2018-05-14","backdrop_path":"\/3zMJNA0vlbbpadstSC73vi0fk2R.jpg","original_language":"pt","id":79068,"vote_average":0,"overview":"Set
        in the coast of Bahia, \"Segundo Sol\" is the story of an axé singer who has
        already made great success but is now in full decay. He is said to be dead,
        the rumor goes viral on the internet and the sales of his albums and videos
        explode as well as at the height of his career. The singer then decides to
        remain dead and takes refuge on the island of Boipeba, where he begins a new
        life with another name.","poster_path":"\/8nygtitEunkbguRIrKHiVGuHFu2.jpg"},{"original_name":"Mindhunter","genre_ids":[80,18],"name":"Mindhunter","popularity":90.835769,"origin_country":["US"],"vote_count":364,"first_air_date":"2017-10-13","backdrop_path":"\/a906PH7CDmSOdS7kmnAgdWk5mhv.jpg","original_language":"en","id":67744,"vote_average":7.5,"overview":"An
        agent in the FBI''s Elite Serial Crime Unit develops profiling techniques
        as he pursues notorious serial killers and rapists.","poster_path":"\/r7RIwuceOaDP4KTmU1EFeDniRq4.jpg"},{"original_name":"Arrow","genre_ids":[28,12,80,18,9648,878],"name":"Arrow","popularity":86.552774,"origin_country":["US"],"vote_count":1876,"first_air_date":"2012-10-10","backdrop_path":"\/dKxkwAJfGuznW8Hu0mhaDJtna0n.jpg","original_language":"en","id":1412,"vote_average":5.9,"overview":"Spoiled
        billionaire playboy Oliver Queen is missing and presumed dead when his yacht
        is lost at sea. He returns five years later a changed man, determined to clean
        up the city as a hooded vigilante armed with a bow.","poster_path":"\/mo0FP1GxOFZT4UDde7RFDz5APXF.jpg"},{"original_name":"Family
        Guy","genre_ids":[16,35],"name":"Family Guy","popularity":85.984867,"origin_country":["US"],"vote_count":1135,"first_air_date":"1999-01-31","backdrop_path":"\/pH38r4TWTqq7Mcs6XAlwgzNUeJe.jpg","original_language":"en","id":1434,"vote_average":6.5,"overview":"Sick,
        twisted, politically incorrect and Freakin'' Sweet animated series featuring
        the adventures of the dysfunctional Griffin family. Bumbling Peter and long-suffering
        Lois have three kids. Stewie (a brilliant but sadistic baby bent on killing
        his mother and taking over the world), Meg (the oldest, and is the most unpopular
        girl in town) and Chris (the middle kid, he''s not very bright but has a passion
        for movies). The final member of the family is Brian - a talking dog and much
        more than a pet, he keeps Stewie in check whilst sipping Martinis and sorting
        through his own life issues.","poster_path":"\/gBGUL1UTUNmdRQT8gA1LUV4yg39.jpg"},{"original_name":"Supernatural","genre_ids":[18,9648,10765],"name":"Supernatural","popularity":83.947828,"origin_country":["US"],"vote_count":1399,"first_air_date":"2005-09-13","backdrop_path":"\/koMUCyGWNtH5LXYbGqjsUwvgtsT.jpg","original_language":"en","id":1622,"vote_average":7.2,"overview":"When
        they were boys, Sam and Dean Winchester lost their mother to a mysterious
        and demonic supernatural force. Subsequently, their father raised them to
        be soldiers. He taught them about the paranormal evil that lives in the dark
        corners and on the back roads of America ... and he taught them how to kill
        it. Now, the Winchester brothers crisscross the country in their ''67 Chevy
        Impala, battling every kind of supernatural threat they encounter along the
        way. ","poster_path":"\/pui1V389cQft0BVFu9pbsYLEW1Q.jpg"},{"original_name":"Friends","id":1668,"name":"Friends","popularity":83.013333,"vote_count":1173,"vote_average":7.8,"first_air_date":"1994-09-22","poster_path":"\/7buCWBTpiPrCF5Lt023dSC60rgS.jpg","genre_ids":[35],"original_language":"en","backdrop_path":"\/efiX8iir6GEBWCD0uCFIi5NAyYA.jpg","overview":"The
        misadventures of a group of friends as they navigate the pitfalls of work,
        life and love in Manhattan.","origin_country":["US"]},{"original_name":"Breaking
        Bad","genre_ids":[18],"name":"Breaking Bad","popularity":82.319042,"origin_country":["US"],"vote_count":2622,"first_air_date":"2008-01-19","backdrop_path":"\/bzoZjhbpriBT2N5kwgK0weUfVOX.jpg","original_language":"en","id":1396,"vote_average":8.3,"overview":"When
        Walter White, a New Mexico chemistry teacher, is diagnosed with Stage III
        cancer and given a prognosis of only two years left to live, he becomes filled
        with a sense of fearlessness and an unrelenting desire to secure his family''s
        financial future at any cost as he enters the dangerous world of drugs and
        crime.","poster_path":"\/1yeVJox3rjo2jBKrrihIMj7uoS9.jpg"},{"original_name":"The
        Missing","genre_ids":[18,9648],"name":"The Missing","popularity":79.740672,"origin_country":["GB"],"vote_count":109,"first_air_date":"2014-10-28","backdrop_path":"\/2hF2RnjVwHvxfhH2lkB9H9FdQHb.jpg","original_language":"en","id":61555,"vote_average":7.1,"overview":"A
        gripping anthological relationship thriller series exploring the emotional
        fallout of a child''s abduction not only on the family but on the wider community,
        told over two time frames.","poster_path":"\/w1FDeOGoFS1qsSRHlj2Jzp2P0e1.jpg"},{"original_name":"ナルト
        疾風伝","genre_ids":[16,35,18],"name":"Naruto Shippūden","popularity":77.851073,"origin_country":["JP"],"vote_count":142,"first_air_date":"2007-02-15","backdrop_path":"\/l6dniTn36DSI1YpP8D1jg2n0HCc.jpg","original_language":"ja","id":31910,"vote_average":7.6,"overview":"Naruto
        Shippuuden is the continuation of the original animated TV series Naruto.The
        story revolves around an older and slightly more matured Uzumaki Naruto and
        his quest to save his friend Uchiha Sasuke from the grips of the snake-like
        Shinobi, Orochimaru. After 2 and a half years Naruto finally returns to his
        village of Konoha, and sets about putting his ambitions to work, though it
        will not be easy, as He has amassed a few (more dangerous) enemies, in the
        likes of the shinobi organization; Akatsuki.","poster_path":"\/4JmrCB3KTWnBViNzH1LNn2wvdPD.jpg"},{"original_name":"Game
        of Thrones","genre_ids":[18,10759,10765],"name":"Game of Thrones","popularity":76.935862,"origin_country":["US"],"vote_count":4581,"first_air_date":"2011-04-17","backdrop_path":"\/gX8SYlnL9ZznfZwEH4KJUePBFUM.jpg","original_language":"en","id":1399,"vote_average":8.2,"overview":"Seven
        noble families fight for control of the mythical land of Westeros. Friction
        between the houses leads to full-scale war. All while a very ancient evil
        awakens in the farthest north. Amidst the war, a neglected military order
        of misfits, the Night''s Watch, is all that stands between the realms of men
        and icy horrors beyond.","poster_path":"\/gwPSoYUHAKmdyVywgLpKKA4BjRr.jpg"},{"original_name":"Emmerdale","genre_ids":[18,10766],"name":"Emmerdale","popularity":76.143658,"origin_country":["GB"],"vote_count":18,"first_air_date":"1972-10-16","backdrop_path":"\/bHrzj9FeXWDZajF2UUmNIHSMNkD.jpg","original_language":"en","id":2527,"vote_average":4.3,"overview":"The
        lives of several families in the Yorkshire Dales revolve around a farm and
        the nearby village. With murders, affairs, lies, deceit, laughter and tears,
        it''s all there in the village.","poster_path":"\/4IMptN7S7VJs6tyLOx5dOTPsOx8.jpg"},{"original_name":"Elementary","genre_ids":[80,18,9648],"name":"Elementary","popularity":75.920722,"origin_country":["US"],"vote_count":464,"first_air_date":"2012-09-27","backdrop_path":"\/uHjFaGQGGY0idp8InlCoUiDKYkZ.jpg","original_language":"en","id":1415,"vote_average":6.9,"overview":"A
        modern-day drama about a crime-solving duo that cracks the NYPD''s most impossible
        cases. Following his fall from grace in London and a stint in rehab, eccentric
        Sherlock escapes to Manhattan where his wealthy father forces him to live
        with his worst nightmare - a sober companion, Dr. Watson.","poster_path":"\/q9dObe29W4bDpgzUfOOH3ZnzDbR.jpg"}]}'
    http_version: 
  recorded_at: Sat, 02 Jun 2018 17:28:34 GMT
recorded_with: VCR 4.0.0
